\relax 
\providecommand\hyper@newdestlabel[2]{}
\providecommand\BKM@entry[2]{}
\providecommand{\transparent@use}[1]{}
\providecommand*{\memsetcounter}[2]{}
\providecommand\HyperFirstAtBeginDocument{\AtBeginDocument}
\HyperFirstAtBeginDocument{\ifx\hyper@anchor\@undefined
\global\let\oldcontentsline\contentsline
\gdef\contentsline#1#2#3#4{\oldcontentsline{#1}{#2}{#3}}
\global\let\oldnewlabel\newlabel
\gdef\newlabel#1#2{\newlabelxx{#1}#2}
\gdef\newlabelxx#1#2#3#4#5#6{\oldnewlabel{#1}{{#2}{#3}}}
\AtEndDocument{\ifx\hyper@anchor\@undefined
\let\contentsline\oldcontentsline
\let\newlabel\oldnewlabel
\fi}
\fi}
\global\let\hyper@last\relax 
\gdef\HyperFirstAtBeginDocument#1{#1}
\providecommand\HyField@AuxAddToFields[1]{}
\providecommand\HyField@AuxAddToCoFields[2]{}
\catcode `"\active 
\citation{abnt-url-package=url}
\@writefile{toc}{\changetocdepth  {4}}
\select@language{brazil}
\@writefile{toc}{\select@language{brazil}}
\@writefile{lof}{\select@language{brazil}}
\@writefile{lot}{\select@language{brazil}}
\select@language{brazil}
\@writefile{toc}{\select@language{brazil}}
\@writefile{lof}{\select@language{brazil}}
\@writefile{lot}{\select@language{brazil}}
\BKM@entry{id=1,dest={6368617074657262312E30},srcline={201}}{466F6C686120646520726F73746F}
\BKM@entry{id=2,dest={6368617074657262322E30},srcline={213}}{526573756D6F}
\BKM@entry{id=3,dest={6368617074657262332E30},srcline={219}}{4162737472616374}
\BKM@entry{id=4,dest={6C6F662E30},srcline={233}}{4C6973746120646520696C75737472615C3334375C3336356573}
\@writefile{toc}{\setlength  {\cftchapterindent }{\cftlastnumwidth } \setlength  {\cftchapternumwidth }{2em}}
\BKM@entry{id=5,dest={6C6F742E30},srcline={241}}{4C6973746120646520746162656C6173}
\@writefile{toc}{\setlength  {\cftchapterindent }{\cftlastnumwidth } \setlength  {\cftchapternumwidth }{2em}}
\BKM@entry{id=6,dest={746F632E30},srcline={249}}{53756D5C33343172696F}
\@writefile{toc}{\setlength  {\cftchapterindent }{\cftlastnumwidth } \setlength  {\cftchapternumwidth }{2em}}
\BKM@entry{id=7,dest={706172742E31},srcline={266}}{5669735C3334336F20476572616C}
\@writefile{toc}{\contentsline {part}{\partnumberline {I}\MakeTextUppercase  {Vis\IeC {\~a}o Geral}}{12}{part.1}}
\@input{abntex2-modelo-include-comandos.aux}
\BKM@entry{id=8,dest={636861707465722E31},srcline={279}}{496E74726F64755C3334375C3334336F}
\@writefile{toc}{\setlength  {\cftchapterindent }{0em} \setlength  {\cftchapternumwidth }{\cftlastnumwidth }}
\@writefile{toc}{\contentsline {chapter}{\chapternumberline {1}\MakeTextUppercase  {Introdu\IeC {\c c}\IeC {\~a}o}}{13}{chapter.1}}
\BKM@entry{id=9,dest={73656374696F6E2E312E31},srcline={287}}{50726F626C656D61}
\@writefile{toc}{\contentsline {section}{\numberline {1.1}Problema}{14}{section.1.1}}
\BKM@entry{id=10,dest={73656374696F6E2E312E32},srcline={299}}{4F626A657469766F73}
\BKM@entry{id=11,dest={73756273656374696F6E2E312E322E31},srcline={301}}{4F626A657469766F20476572616C}
\BKM@entry{id=12,dest={73756273656374696F6E2E312E322E32},srcline={304}}{4F626A657469766F732045737065635C3335356669636F73}
\BKM@entry{id=13,dest={73656374696F6E2E312E33},srcline={314}}{4A757374696669636174697661}
\@writefile{toc}{\contentsline {section}{\numberline {1.2}Objetivos}{15}{section.1.2}}
\@writefile{toc}{\contentsline {subsection}{\numberline {1.2.1}Objetivo Geral}{15}{subsection.1.2.1}}
\@writefile{toc}{\contentsline {subsection}{\numberline {1.2.2}Objetivos Espec\IeC {\'\i }ficos}{15}{subsection.1.2.2}}
\@writefile{toc}{\contentsline {section}{\numberline {1.3}Justificativa}{15}{section.1.3}}
\BKM@entry{id=14,dest={73656374696F6E2E312E34},srcline={319}}{4173706563746F73204D65746F646F6C5C3336336769636F73}
\BKM@entry{id=15,dest={73656374696F6E2E312E35},srcline={323}}{41706F7274652054655C3336337269636F}
\@writefile{toc}{\contentsline {section}{\numberline {1.4}Aspectos Metodol\IeC {\'o}gicos}{16}{section.1.4}}
\@writefile{toc}{\contentsline {section}{\numberline {1.5}Aporte Te\IeC {\'o}rico}{16}{section.1.5}}
\BKM@entry{id=16,dest={636861707465722E32},srcline={327}}{46756E64616D656E74615C3334375C3334336F2054655C33363372696361}
\BKM@entry{id=17,dest={73656374696F6E2E322E31},srcline={330}}{436C6F7564204669726573746F7265}
\BKM@entry{id=18,dest={73656374696F6E2E322E32},srcline={333}}{54726162616C686F732052656C6163696F6E61646F73}
\@writefile{toc}{\setlength  {\cftchapterindent }{0em} \setlength  {\cftchapternumwidth }{\cftlastnumwidth }}
\@writefile{toc}{\contentsline {chapter}{\chapternumberline {2}\MakeTextUppercase  {Fundamenta\IeC {\c c}\IeC {\~a}o Te\IeC {\'o}rica}}{17}{chapter.2}}
\@writefile{toc}{\contentsline {section}{\numberline {2.1}Cloud Firestore}{17}{section.2.1}}
\@writefile{toc}{\contentsline {section}{\numberline {2.2}Trabalhos Relacionados}{17}{section.2.2}}
\BKM@entry{id=19,dest={706172742E32},srcline={343}}{416E5C3334316C697365}
\@writefile{toc}{\contentsline {part}{\partnumberline {II}\MakeTextUppercase  {An\IeC {\'a}lise}}{18}{part.2}}
\BKM@entry{id=20,dest={636861707465722E33},srcline={349}}{52657175697369746F73}
\BKM@entry{id=21,dest={73656374696F6E2E332E31},srcline={351}}{52657175697369746F732046756E63696F6E616973}
\@writefile{toc}{\setlength  {\cftchapterindent }{0em} \setlength  {\cftchapternumwidth }{\cftlastnumwidth }}
\@writefile{toc}{\contentsline {chapter}{\chapternumberline {3}\MakeTextUppercase  {Requisitos}}{19}{chapter.3}}
\@writefile{toc}{\contentsline {section}{\numberline {3.1}Requisitos Funcionais}{19}{section.3.1}}
\@writefile{lot}{\contentsline {table}{\numberline {1}{Requisitos Funcionais}}{20}{table.3.1}}
\newlabel{tab-funcionais}{{\M@TitleReference {1}{Requisitos Funcionais}}{20}{Requisitos Funcionais}{table.3.1}{}}
\gdef \LT@i {\LT@entry 
    {1}{41.25273pt}\LT@entry 
    {1}{296.92755pt}\LT@entry 
    {1}{97.75826pt}\LT@entry 
    {1}{154.66377pt}}
\BKM@entry{id=22,dest={73656374696F6E2E332E32},srcline={362}}{4E5C3334336F2046756E63696F6E616973}
\@writefile{toc}{\contentsline {section}{\numberline {3.2}N\IeC {\~a}o Funcionais}{24}{section.3.2}}
\gdef \LT@ii {\LT@entry 
    {1}{69.70549pt}\LT@entry 
    {1}{296.92755pt}\LT@entry 
    {1}{154.66377pt}}
\@writefile{lot}{\contentsline {table}{\numberline {2}{Requisitos N\IeC {\~a}o Funcionais}}{25}{table.3.2}}
\newlabel{tab-nao-funcionais}{{\M@TitleReference {2}{N\IeC {\~a}o Funcionais}}{25}{Requisitos Não Funcionais}{table.3.2}{}}
\BKM@entry{id=23,dest={636861707465722E34},srcline={372}}{4361736F732064652055736F}
\BKM@entry{id=24,dest={73656374696F6E2E342E31},srcline={374}}{4C69737461206465204361736F732064652055736F}
\@writefile{toc}{\setlength  {\cftchapterindent }{0em} \setlength  {\cftchapternumwidth }{\cftlastnumwidth }}
\@writefile{toc}{\contentsline {chapter}{\chapternumberline {4}\MakeTextUppercase  {Casos de Uso}}{27}{chapter.4}}
\@writefile{toc}{\contentsline {section}{\numberline {4.1}Lista de Casos de Uso}{27}{section.4.1}}
\@writefile{lot}{\contentsline {table}{\numberline {3}{Lista de Casos de Uso}}{28}{table.4.3}}
\newlabel{tab-casos-de-uso}{{\M@TitleReference {3}{Lista de Casos de Uso}}{28}{Lista de Casos de Uso}{table.4.3}{}}
\gdef \LT@iii {\LT@entry 
    {1}{41.25273pt}\LT@entry 
    {1}{154.66377pt}\LT@entry 
    {1}{183.11652pt}\LT@entry 
    {1}{97.75826pt}\LT@entry 
    {1}{97.75826pt}}
\BKM@entry{id=25,dest={73656374696F6E2E342E32},srcline={383}}{4469616772616D61206465206361736F732064652075736F}
\@writefile{toc}{\contentsline {section}{\numberline {4.2}Diagrama de casos de uso}{31}{section.4.2}}
\@writefile{lof}{\contentsline {figure}{\numberline {1}{\ignorespaces Caso de Uso - Cadastrar Republica}}{31}{figure.4.1}}
\newlabel{diagrama-cadastrar-republica}{{\M@TitleReference {1}{Caso de Uso - Cadastrar Republica}}{31}{Caso de Uso - Cadastrar Republica}{figure.4.1}{}}
\@writefile{lof}{\contentsline {figure}{\numberline {2}{\ignorespaces Caso de Uso - Editar Republica}}{32}{figure.4.2}}
\newlabel{diagrama-editar-republica}{{\M@TitleReference {2}{Caso de Uso - Editar Republica}}{32}{Caso de Uso - Editar Republica}{figure.4.2}{}}
\@writefile{lof}{\contentsline {figure}{\numberline {3}{\ignorespaces Caso de Uso - Pesquisar Republica}}{32}{figure.4.3}}
\newlabel{diagrama-pesquisar-republica}{{\M@TitleReference {3}{Caso de Uso - Pesquisar Republica}}{32}{Caso de Uso - Pesquisar Republica}{figure.4.3}{}}
\@writefile{lof}{\contentsline {figure}{\numberline {4}{\ignorespaces Caso de Uso - Solicitar Vaga}}{33}{figure.4.4}}
\newlabel{diagrama-solicitar-vaga}{{\M@TitleReference {4}{Caso de Uso - Solicitar Vaga}}{33}{Caso de Uso - Solicitar Vaga}{figure.4.4}{}}
\@writefile{lof}{\contentsline {figure}{\numberline {5}{\ignorespaces Caso de Uso - Aceitar Solicita\IeC {\c c}\IeC {\~a}o}}{33}{figure.4.5}}
\newlabel{diagrama-aceitar-solicitacao}{{\M@TitleReference {5}{Caso de Uso - Aceitar Solicita\IeC {\c c}\IeC {\~a}o}}{33}{Caso de Uso - Aceitar Solicitação}{figure.4.5}{}}
\@writefile{lof}{\contentsline {figure}{\numberline {6}{\ignorespaces Caso de Uso - Editar Informa\IeC {\c c}\IeC {\~o}es Pessoais}}{34}{figure.4.6}}
\newlabel{diagrama-editar-info}{{\M@TitleReference {6}{Caso de Uso - Editar Informa\IeC {\c c}\IeC {\~o}es Pessoais}}{34}{Caso de Uso - Editar Informações Pessoais}{figure.4.6}{}}
\@writefile{lof}{\contentsline {figure}{\numberline {7}{\ignorespaces Caso de Uso - Despesas}}{35}{figure.4.7}}
\newlabel{diagrama-crud-despesa}{{\M@TitleReference {7}{Caso de Uso - Despesas}}{35}{Caso de Uso - Despesas}{figure.4.7}{}}
\@writefile{lof}{\contentsline {figure}{\numberline {8}{\ignorespaces Caso de Uso - Despesa do Morador}}{36}{figure.4.8}}
\newlabel{diagrama-despesa-morador}{{\M@TitleReference {8}{Caso de Uso - Despesa do Morador}}{36}{Caso de Uso - Despesa do Morador}{figure.4.8}{}}
\@writefile{lof}{\contentsline {figure}{\numberline {9}{\ignorespaces Caso de Uso - Gerar Relat\IeC {\'o}rio de Despesa}}{37}{figure.4.9}}
\newlabel{diagrama-relatorio-despesa}{{\M@TitleReference {9}{Caso de Uso - Gerar Relat\IeC {\'o}rio de Despesa}}{37}{Caso de Uso - Gerar Relatório de Despesa}{figure.4.9}{}}
\@writefile{lof}{\contentsline {figure}{\numberline {10}{\ignorespaces Caso de Uso - Dep\IeC {\'o}sito no Caixa}}{38}{figure.4.10}}
\newlabel{diagrama-deposito-caixa}{{\M@TitleReference {10}{Caso de Uso - Dep\IeC {\'o}sito no Caixa}}{38}{Caso de Uso - Depósito no Caixa}{figure.4.10}{}}
\@writefile{lof}{\contentsline {figure}{\numberline {11}{\ignorespaces Caso de Uso - Saque no Caixa}}{39}{figure.4.11}}
\newlabel{diagrama-saque-caixa}{{\M@TitleReference {11}{Caso de Uso - Saque no Caixa}}{39}{Caso de Uso - Saque no Caixa}{figure.4.11}{}}
\@writefile{lof}{\contentsline {figure}{\numberline {12}{\ignorespaces Caso de Uso - Gerar Relat\IeC {\'o}rio de Caixa}}{40}{figure.4.12}}
\newlabel{diagrama-relatorio-caixa}{{\M@TitleReference {12}{Caso de Uso - Gerar Relat\IeC {\'o}rio de Caixa}}{40}{Caso de Uso - Gerar Relatório de Caixa}{figure.4.12}{}}
\BKM@entry{id=26,dest={73656374696F6E2E342E33},srcline={521}}{4361736F732064652055736F205465787475616C}
\BKM@entry{id=27,dest={73756273656374696F6E2E342E332E31},srcline={524}}{4361736F2064652075736F207465787475616C202D20436164617374726172205265705C333732626C696361}
\gdef \LT@iv {\LT@entry 
    {1}{211.96927pt}\LT@entry 
    {1}{211.56927pt}}
\@writefile{toc}{\contentsline {section}{\numberline {4.3}Casos de Uso Textual}{41}{section.4.3}}
\@writefile{toc}{\contentsline {subsection}{\numberline {4.3.1}Caso de uso textual - Cadastrar Rep\IeC {\'u}blica}{41}{subsection.4.3.1}}
\@writefile{lot}{\contentsline {table}{\numberline {4}{Caso de uso textual - Cadastrar Rep\IeC {\'u}blica}}{41}{table.4.4}}
\newlabel{tab-cadastro-republica}{{\M@TitleReference {4}{Caso de uso textual - Cadastrar Rep\IeC {\'u}blica}}{41}{Caso de uso textual - Cadastrar República}{table.4.4}{}}
\BKM@entry{id=28,dest={73756273656374696F6E2E342E332E32},srcline={528}}{4361736F2064652075736F207465787475616C202D20456469746172205265705C333732626C696361}
\gdef \LT@v {\LT@entry 
    {1}{211.96927pt}\LT@entry 
    {1}{211.56927pt}}
\@writefile{toc}{\contentsline {subsection}{\numberline {4.3.2}Caso de uso textual - Editar Rep\IeC {\'u}blica}{42}{subsection.4.3.2}}
\@writefile{lot}{\contentsline {table}{\numberline {5}{Caso de uso textual - Editar Rep\IeC {\'u}blica}}{42}{table.4.5}}
\newlabel{tab-editar-republica}{{\M@TitleReference {5}{Caso de uso textual - Editar Rep\IeC {\'u}blica}}{42}{Caso de uso textual - Editar República}{table.4.5}{}}
\BKM@entry{id=29,dest={73756273656374696F6E2E342E332E33},srcline={532}}{4361736F2064652075736F207465787475616C202D20506573717569736172205265705C333732626C696361}
\gdef \LT@vi {\LT@entry 
    {1}{211.96927pt}\LT@entry 
    {1}{211.56927pt}}
\@writefile{toc}{\contentsline {subsection}{\numberline {4.3.3}Caso de uso textual - Pesquisar Rep\IeC {\'u}blica}{43}{subsection.4.3.3}}
\@writefile{lot}{\contentsline {table}{\numberline {6}{Caso de uso textual - Pesquisar Rep\IeC {\'u}blica}}{43}{table.4.6}}
\newlabel{tab-pesquisar-republica}{{\M@TitleReference {6}{Caso de uso textual - Pesquisar Rep\IeC {\'u}blica}}{43}{Caso de uso textual - Pesquisar República}{table.4.6}{}}
\BKM@entry{id=30,dest={73756273656374696F6E2E342E332E34},srcline={536}}{4361736F2064652075736F207465787475616C202D20536F6C6963697461722056616761}
\gdef \LT@vii {\LT@entry 
    {1}{211.96927pt}\LT@entry 
    {1}{211.56927pt}}
\@writefile{toc}{\contentsline {subsection}{\numberline {4.3.4}Caso de uso textual - Solicitar Vaga}{44}{subsection.4.3.4}}
\@writefile{lot}{\contentsline {table}{\numberline {7}{Caso de uso textual - Solicitar Vaga}}{44}{table.4.7}}
\newlabel{tab-solicitar-vaga}{{\M@TitleReference {7}{Caso de uso textual - Solicitar Vaga}}{44}{Caso de uso textual - Solicitar Vaga}{table.4.7}{}}
\BKM@entry{id=31,dest={73756273656374696F6E2E342E332E35},srcline={540}}{4361736F2064652075736F207465787475616C202D204163656974617220536F6C69636974615C3334375C3334336F}
\gdef \LT@viii {\LT@entry 
    {1}{211.96927pt}\LT@entry 
    {1}{211.56927pt}}
\@writefile{toc}{\contentsline {subsection}{\numberline {4.3.5}Caso de uso textual - Aceitar Solicita\IeC {\c c}\IeC {\~a}o}{45}{subsection.4.3.5}}
\@writefile{lot}{\contentsline {table}{\numberline {8}{Caso de uso textual - Aceitar Solicita\IeC {\c c}\IeC {\~a}o}}{45}{table.4.8}}
\newlabel{tab-aceitar-solicitacao}{{\M@TitleReference {8}{Caso de uso textual - Aceitar Solicita\IeC {\c c}\IeC {\~a}o}}{45}{Caso de uso textual - Aceitar Solicitação}{table.4.8}{}}
\BKM@entry{id=32,dest={73756273656374696F6E2E342E332E36},srcline={544}}{4361736F2064652075736F207465787475616C202D2045646974617220496E666F726D615C3334375C333635657320506573736F616973}
\gdef \LT@ix {\LT@entry 
    {1}{211.96927pt}\LT@entry 
    {1}{211.56927pt}}
\@writefile{toc}{\contentsline {subsection}{\numberline {4.3.6}Caso de uso textual - Editar Informa\IeC {\c c}\IeC {\~o}es Pessoais}{46}{subsection.4.3.6}}
\@writefile{lot}{\contentsline {table}{\numberline {9}{Caso de uso textual - Editar Informa\IeC {\c c}\IeC {\~o}es Pessoais}}{46}{table.4.9}}
\newlabel{tab-editar-info-pessoal}{{\M@TitleReference {9}{Caso de uso textual - Editar Informa\IeC {\c c}\IeC {\~o}es Pessoais}}{46}{Caso de uso textual - Editar Informações Pessoais}{table.4.9}{}}
\BKM@entry{id=33,dest={73756273656374696F6E2E342E332E37},srcline={548}}{4361736F2064652075736F207465787475616C202D204361646173747261722044657370657361}
\gdef \LT@x {\LT@entry 
    {1}{211.96927pt}\LT@entry 
    {1}{211.56927pt}}
\@writefile{toc}{\contentsline {subsection}{\numberline {4.3.7}Caso de uso textual - Cadastrar Despesa}{47}{subsection.4.3.7}}
\@writefile{lot}{\contentsline {table}{\numberline {10}{Caso de uso textual - Cadastrar Despesa}}{47}{table.4.10}}
\newlabel{tab-cadastro-despesa}{{\M@TitleReference {10}{Caso de uso textual - Cadastrar Despesa}}{47}{Caso de uso textual - Cadastrar Despesa}{table.4.10}{}}
\BKM@entry{id=34,dest={73756273656374696F6E2E342E332E38},srcline={552}}{4361736F2064652075736F207465787475616C202D204564697461722044657370657361}
\gdef \LT@xi {\LT@entry 
    {1}{211.96927pt}\LT@entry 
    {1}{211.56927pt}}
\@writefile{toc}{\contentsline {subsection}{\numberline {4.3.8}Caso de uso textual - Editar Despesa}{48}{subsection.4.3.8}}
\@writefile{lot}{\contentsline {table}{\numberline {11}{Caso de uso textual - Editar Despesa}}{48}{table.4.11}}
\newlabel{tab-editar-despesa}{{\M@TitleReference {11}{Caso de uso textual - Editar Despesa}}{48}{Caso de uso textual - Editar Despesa}{table.4.11}{}}
\BKM@entry{id=35,dest={73756273656374696F6E2E342E332E39},srcline={556}}{4361736F2064652075736F207465787475616C202D204578636C7569722044657370657361}
\gdef \LT@xii {\LT@entry 
    {1}{211.96927pt}\LT@entry 
    {1}{211.56927pt}}
\@writefile{toc}{\contentsline {subsection}{\numberline {4.3.9}Caso de uso textual - Excluir Despesa}{49}{subsection.4.3.9}}
\@writefile{lot}{\contentsline {table}{\numberline {12}{Caso de uso textual - Excluir Despesa}}{49}{table.4.12}}
\newlabel{tab-excluir-despesa}{{\M@TitleReference {12}{Caso de uso textual - Excluir Despesa}}{49}{Caso de uso textual - Excluir Despesa}{table.4.12}{}}
\BKM@entry{id=36,dest={73756273656374696F6E2E342E332E3130},srcline={560}}{4361736F2064652075736F207465787475616C202D2041747269627569722044657370657361}
\gdef \LT@xiii {\LT@entry 
    {1}{211.96927pt}\LT@entry 
    {1}{211.56927pt}}
\@writefile{toc}{\contentsline {subsection}{\numberline {4.3.10}Caso de uso textual - Atribuir Despesa}{50}{subsection.4.3.10}}
\@writefile{lot}{\contentsline {table}{\numberline {13}{Caso de uso textual - Atribuir Despesa}}{50}{table.4.13}}
\newlabel{tab-atribuir-despesa}{{\M@TitleReference {13}{Caso de uso textual - Atribuir Despesa}}{50}{Caso de uso textual - Atribuir Despesa}{table.4.13}{}}
\BKM@entry{id=37,dest={73756273656374696F6E2E342E332E3131},srcline={564}}{4361736F2064652075736F207465787475616C202D2045646974617220417472696275695C3334375C3334336F2044657370657361}
\gdef \LT@xiv {\LT@entry 
    {1}{211.96927pt}\LT@entry 
    {1}{211.56927pt}}
\@writefile{toc}{\contentsline {subsection}{\numberline {4.3.11}Caso de uso textual - Editar Atribui\IeC {\c c}\IeC {\~a}o Despesa}{51}{subsection.4.3.11}}
\@writefile{lot}{\contentsline {table}{\numberline {14}{Caso de uso textual - Editar Atribui\IeC {\c c}\IeC {\~a}o de Despesa}}{51}{table.4.14}}
\newlabel{tab-editar-atb-despesa}{{\M@TitleReference {14}{Caso de uso textual - Editar Atribui\IeC {\c c}\IeC {\~a}o Despesa}}{51}{Caso de uso textual - Editar Atribuição de Despesa}{table.4.14}{}}
\BKM@entry{id=38,dest={73756273656374696F6E2E342E332E3132},srcline={568}}{4361736F2064652075736F207465787475616C202D204578636C75697220417472696275695C3334375C3334336F2044657370657361}
\gdef \LT@xv {\LT@entry 
    {1}{211.96927pt}\LT@entry 
    {1}{211.56927pt}}
\@writefile{toc}{\contentsline {subsection}{\numberline {4.3.12}Caso de uso textual - Excluir Atribui\IeC {\c c}\IeC {\~a}o Despesa}{53}{subsection.4.3.12}}
\@writefile{lot}{\contentsline {table}{\numberline {15}{Caso de uso textual - Excluir Atribui\IeC {\c c}\IeC {\~a}o de Despesa}}{53}{table.4.15}}
\newlabel{tab-excluir-atb-despesa}{{\M@TitleReference {15}{Caso de uso textual - Excluir Atribui\IeC {\c c}\IeC {\~a}o Despesa}}{53}{Caso de uso textual - Excluir Atribuição de Despesa}{table.4.15}{}}
\BKM@entry{id=39,dest={73756273656374696F6E2E342E332E3133},srcline={572}}{4361736F2064652075736F207465787475616C202D205065737175697361722044657370657361}
\gdef \LT@xvi {\LT@entry 
    {1}{211.96927pt}\LT@entry 
    {1}{211.56927pt}}
\@writefile{toc}{\contentsline {subsection}{\numberline {4.3.13}Caso de uso textual - Pesquisar Despesa}{55}{subsection.4.3.13}}
\@writefile{lot}{\contentsline {table}{\numberline {16}{Caso de uso textual - Pesquisar Despesa}}{55}{table.4.16}}
\newlabel{tab-pesquisar-despesa}{{\M@TitleReference {16}{Caso de uso textual - Pesquisar Despesa}}{55}{Caso de uso textual - Pesquisar Despesa}{table.4.16}{}}
\BKM@entry{id=40,dest={73756273656374696F6E2E342E332E3134},srcline={576}}{4361736F2064652075736F207465787475616C202D2050616761722044657370657361}
\gdef \LT@xvii {\LT@entry 
    {1}{211.96927pt}\LT@entry 
    {1}{211.56927pt}}
\@writefile{toc}{\contentsline {subsection}{\numberline {4.3.14}Caso de uso textual - Pagar Despesa}{56}{subsection.4.3.14}}
\@writefile{lot}{\contentsline {table}{\numberline {17}{Caso de uso textual - Pagar Despesa}}{56}{table.4.17}}
\newlabel{tab-pagar-despesa}{{\M@TitleReference {17}{Caso de uso textual - Pagar Despesa}}{56}{Caso de uso textual - Pagar Despesa}{table.4.17}{}}
\BKM@entry{id=41,dest={73756273656374696F6E2E342E332E3135},srcline={580}}{4361736F2064652075736F207465787475616C202D20436F6E73756C7461722052656369626F}
\gdef \LT@xviii {\LT@entry 
    {1}{211.96927pt}\LT@entry 
    {1}{211.56927pt}}
\@writefile{toc}{\contentsline {subsection}{\numberline {4.3.15}Caso de uso textual - Consultar Recibo}{58}{subsection.4.3.15}}
\@writefile{lot}{\contentsline {table}{\numberline {18}{Caso de uso textual - Consultar Recibo}}{58}{table.4.18}}
\newlabel{tab-consultar-recibo}{{\M@TitleReference {18}{Caso de uso textual - Consultar Recibo}}{58}{Caso de uso textual - Consultar Recibo}{table.4.18}{}}
\BKM@entry{id=42,dest={73756273656374696F6E2E342E332E3136},srcline={584}}{4361736F2064652075736F207465787475616C202D205065737175697361722044657370657361205573755C33343172696F}
\gdef \LT@xix {\LT@entry 
    {1}{211.96927pt}\LT@entry 
    {1}{211.56927pt}}
\@writefile{toc}{\contentsline {subsection}{\numberline {4.3.16}Caso de uso textual - Pesquisar Despesa Usu\IeC {\'a}rio}{60}{subsection.4.3.16}}
\@writefile{lot}{\contentsline {table}{\numberline {19}{Caso de uso textual - Pesquisar Despesa Usu\IeC {\'a}rio}}{60}{table.4.19}}
\newlabel{tab-pesquisar-despesa-usuario}{{\M@TitleReference {19}{Caso de uso textual - Pesquisar Despesa Usu\IeC {\'a}rio}}{60}{Caso de uso textual - Pesquisar Despesa Usuário}{table.4.19}{}}
\BKM@entry{id=43,dest={73756273656374696F6E2E342E332E3137},srcline={588}}{4361736F2064652075736F207465787475616C202D2047657261722052656C61745C33363372696F206465204465737065736173}
\gdef \LT@xx {\LT@entry 
    {1}{211.96927pt}\LT@entry 
    {1}{211.56927pt}}
\@writefile{toc}{\contentsline {subsection}{\numberline {4.3.17}Caso de uso textual - Gerar Relat\IeC {\'o}rio de Despesas}{62}{subsection.4.3.17}}
\@writefile{lot}{\contentsline {table}{\numberline {20}{Caso de uso textual - Gerar Relat\IeC {\'o}rio de Despesas}}{62}{table.4.20}}
\newlabel{tab-gerar-relatr\IeC {\'o}rio-despesas}{{\M@TitleReference {20}{Caso de uso textual - Gerar Relat\IeC {\'o}rio de Despesas}}{62}{Caso de uso textual - Gerar Relatório de Despesas}{table.4.20}{}}
\BKM@entry{id=44,dest={73756273656374696F6E2E342E332E3138},srcline={592}}{4361736F2064652075736F207465787475616C202D204465705C3336337369746F204361697861}
\gdef \LT@xxi {\LT@entry 
    {1}{211.96927pt}\LT@entry 
    {1}{211.56927pt}}
\@writefile{toc}{\contentsline {subsection}{\numberline {4.3.18}Caso de uso textual - Dep\IeC {\'o}sito Caixa}{63}{subsection.4.3.18}}
\@writefile{lot}{\contentsline {table}{\numberline {21}{Caso de uso textual - Dep\IeC {\'o}sito Caixa}}{63}{table.4.21}}
\newlabel{tab-cadastro-deposito}{{\M@TitleReference {21}{Caso de uso textual - Dep\IeC {\'o}sito Caixa}}{63}{Caso de uso textual - Depósito Caixa}{table.4.21}{}}
\BKM@entry{id=45,dest={73756273656374696F6E2E342E332E3139},srcline={596}}{4361736F2064652075736F207465787475616C202D20416C7465726172204465705C3336337369746F}
\gdef \LT@xxii {\LT@entry 
    {1}{211.96927pt}\LT@entry 
    {1}{211.56927pt}}
\@writefile{toc}{\contentsline {subsection}{\numberline {4.3.19}Caso de uso textual - Alterar Dep\IeC {\'o}sito}{64}{subsection.4.3.19}}
\@writefile{lot}{\contentsline {table}{\numberline {22}{Caso de uso textual - Alterar Dep\IeC {\'o}sito}}{64}{table.4.22}}
\newlabel{tab-deposito}{{\M@TitleReference {22}{Caso de uso textual - Alterar Dep\IeC {\'o}sito}}{64}{Caso de uso textual - Alterar Depósito}{table.4.22}{}}
\BKM@entry{id=46,dest={73756273656374696F6E2E342E332E3230},srcline={600}}{4361736F2064652075736F207465787475616C202D204578636C756972204465705C3336337369746F}
\gdef \LT@xxiii {\LT@entry 
    {1}{211.96927pt}\LT@entry 
    {1}{211.56927pt}}
\@writefile{toc}{\contentsline {subsection}{\numberline {4.3.20}Caso de uso textual - Excluir Dep\IeC {\'o}sito}{65}{subsection.4.3.20}}
\@writefile{lot}{\contentsline {table}{\numberline {23}{Caso de uso textual - Excluir Dep\IeC {\'o}sito}}{65}{table.4.23}}
\newlabel{tab-deposito}{{\M@TitleReference {23}{Caso de uso textual - Excluir Dep\IeC {\'o}sito}}{65}{Caso de uso textual - Excluir Depósito}{table.4.23}{}}
\BKM@entry{id=47,dest={73756273656374696F6E2E342E332E3231},srcline={604}}{4361736F2064652075736F207465787475616C202D20506573717569736172204465705C3336337369746F}
\gdef \LT@xxiv {\LT@entry 
    {1}{211.96927pt}\LT@entry 
    {1}{211.56927pt}}
\@writefile{toc}{\contentsline {subsection}{\numberline {4.3.21}Caso de uso textual - Pesquisar Dep\IeC {\'o}sito}{66}{subsection.4.3.21}}
\@writefile{lot}{\contentsline {table}{\numberline {24}{Caso de uso textual - Pesquisar Dep\IeC {\'o}sito}}{66}{table.4.24}}
\newlabel{tab-deposito}{{\M@TitleReference {24}{Caso de uso textual - Pesquisar Dep\IeC {\'o}sito}}{66}{Caso de uso textual - Pesquisar Depósito}{table.4.24}{}}
\BKM@entry{id=48,dest={73756273656374696F6E2E342E332E3232},srcline={608}}{4361736F2064652075736F207465787475616C202D205361717565204361697861}
\gdef \LT@xxv {\LT@entry 
    {1}{211.96927pt}\LT@entry 
    {1}{211.56927pt}}
\@writefile{toc}{\contentsline {subsection}{\numberline {4.3.22}Caso de uso textual - Saque Caixa}{67}{subsection.4.3.22}}
\@writefile{lot}{\contentsline {table}{\numberline {25}{Caso de uso textual - Saque Caixa}}{67}{table.4.25}}
\newlabel{tab-saque-caixa}{{\M@TitleReference {25}{Caso de uso textual - Saque Caixa}}{67}{Caso de uso textual - Saque Caixa}{table.4.25}{}}
\BKM@entry{id=49,dest={73756273656374696F6E2E342E332E3233},srcline={612}}{4361736F2064652075736F207465787475616C202D20416C7465726172205361717565}
\gdef \LT@xxvi {\LT@entry 
    {1}{211.96927pt}\LT@entry 
    {1}{211.56927pt}}
\@writefile{toc}{\contentsline {subsection}{\numberline {4.3.23}Caso de uso textual - Alterar Saque}{68}{subsection.4.3.23}}
\@writefile{lot}{\contentsline {table}{\numberline {26}{Caso de uso textual - Alterar Dep\IeC {\'o}sito}}{68}{table.4.26}}
\newlabel{tab-alterar-saque}{{\M@TitleReference {26}{Caso de uso textual - Alterar Saque}}{68}{Caso de uso textual - Alterar Depósito}{table.4.26}{}}
\BKM@entry{id=50,dest={73756273656374696F6E2E342E332E3234},srcline={616}}{4361736F2064652075736F207465787475616C202D204578636C756972205361717565}
\gdef \LT@xxvii {\LT@entry 
    {1}{211.96927pt}\LT@entry 
    {1}{211.56927pt}}
\@writefile{toc}{\contentsline {subsection}{\numberline {4.3.24}Caso de uso textual - Excluir Saque}{69}{subsection.4.3.24}}
\@writefile{lot}{\contentsline {table}{\numberline {27}{Caso de uso textual - Excluir Dep\IeC {\'o}sito}}{69}{table.4.27}}
\newlabel{tab-excluir-saque}{{\M@TitleReference {27}{Caso de uso textual - Excluir Saque}}{69}{Caso de uso textual - Excluir Depósito}{table.4.27}{}}
\BKM@entry{id=51,dest={73756273656374696F6E2E342E332E3235},srcline={620}}{4361736F2064652075736F207465787475616C202D20506573717569736172205361717565}
\gdef \LT@xxviii {\LT@entry 
    {1}{211.96927pt}\LT@entry 
    {1}{211.56927pt}}
\@writefile{toc}{\contentsline {subsection}{\numberline {4.3.25}Caso de uso textual - Pesquisar Saque}{70}{subsection.4.3.25}}
\@writefile{lot}{\contentsline {table}{\numberline {28}{Caso de uso textual - Pesquisar Dep\IeC {\'o}sito}}{70}{table.4.28}}
\newlabel{tab-pesquisar-saque}{{\M@TitleReference {28}{Caso de uso textual - Pesquisar Saque}}{70}{Caso de uso textual - Pesquisar Depósito}{table.4.28}{}}
\BKM@entry{id=52,dest={73756273656374696F6E2E342E332E3236},srcline={624}}{4361736F2064652075736F207465787475616C202D2047657261722052656C61745C33363372696F206465204361697861}
\gdef \LT@xxix {\LT@entry 
    {1}{211.96927pt}\LT@entry 
    {1}{211.56927pt}}
\@writefile{toc}{\contentsline {subsection}{\numberline {4.3.26}Caso de uso textual - Gerar Relat\IeC {\'o}rio de Caixa}{71}{subsection.4.3.26}}
\@writefile{lot}{\contentsline {table}{\numberline {29}{Caso de uso textual - Gerar Relat\IeC {\'o}rio de Caixa}}{71}{table.4.29}}
\newlabel{tab-gerar-relatr\IeC {\'o}rio-caixa}{{\M@TitleReference {29}{Caso de uso textual - Gerar Relat\IeC {\'o}rio de Caixa}}{71}{Caso de uso textual - Gerar Relatório de Caixa}{table.4.29}{}}
\BKM@entry{id=53,dest={706172742E33},srcline={627}}{50726F6A65746F}
\@writefile{toc}{\contentsline {part}{\partnumberline {III}\MakeTextUppercase  {Projeto}}{72}{part.3}}
\BKM@entry{id=54,dest={636861707465722E35},srcline={631}}{50726F6A65746F206465204172717569746574757261}
\BKM@entry{id=55,dest={73656374696F6E2E352E31},srcline={633}}{4465736372695C3334375C3334336F}
\@writefile{toc}{\setlength  {\cftchapterindent }{0em} \setlength  {\cftchapternumwidth }{\cftlastnumwidth }}
\@writefile{toc}{\contentsline {chapter}{\chapternumberline {5}\MakeTextUppercase  {Projeto de Arquitetura}}{73}{chapter.5}}
\@writefile{toc}{\contentsline {section}{\numberline {5.1}Descri\IeC {\c c}\IeC {\~a}o}{73}{section.5.1}}
\BKM@entry{id=56,dest={73756273656374696F6E2E352E312E31},srcline={637}}{4469616772616D61206461204172717569746574757261}
\@writefile{toc}{\contentsline {subsection}{\numberline {5.1.1}Diagrama da Arquitetura}{74}{subsection.5.1.1}}
\@writefile{lof}{\contentsline {figure}{\numberline {13}{\ignorespaces Diagrama da Arquitetura}}{74}{figure.5.13}}
\newlabel{diagrama-arquitetura}{{\M@TitleReference {13}{Diagrama da Arquitetura}}{74}{Diagrama da Arquitetura}{figure.5.13}{}}
\BKM@entry{id=57,dest={636861707465722E36},srcline={650}}{50726F6A65746F206465204461646F73}
\BKM@entry{id=58,dest={73656374696F6E2E362E31},srcline={654}}{4469616772616D61206465205061636F746573}
\@writefile{toc}{\setlength  {\cftchapterindent }{0em} \setlength  {\cftchapternumwidth }{\cftlastnumwidth }}
\@writefile{toc}{\contentsline {chapter}{\chapternumberline {6}\MakeTextUppercase  {Projeto de Dados}}{75}{chapter.6}}
\@writefile{toc}{\contentsline {section}{\numberline {6.1}Diagrama de Pacotes}{75}{section.6.1}}
\@writefile{lof}{\contentsline {figure}{\numberline {14}{\ignorespaces Diagrama de Pacotes}}{76}{figure.6.14}}
\newlabel{mer}{{\M@TitleReference {14}{Diagrama de Pacotes}}{76}{Diagrama de Pacotes}{figure.6.14}{}}
\BKM@entry{id=59,dest={73656374696F6E2E362E32},srcline={668}}{526567726173206465204E65675C33363363696F}
\@writefile{toc}{\contentsline {section}{\numberline {6.2}Regras de Neg\IeC {\'o}cio}{77}{section.6.2}}
\BKM@entry{id=60,dest={73656374696F6E2E362E33},srcline={673}}{446963696F6E5C33343172696F206465204461646F73}
\@writefile{toc}{\contentsline {section}{\numberline {6.3}Dicion\IeC {\'a}rio de Dados}{78}{section.6.3}}
\gdef \LT@xxx {\LT@entry 
    {1}{155.06377pt}\LT@entry 
    {1}{126.21101pt}\LT@entry 
    {1}{211.56927pt}\LT@entry 
    {1}{154.66377pt}}
\gdef \LT@xxxi {\LT@entry 
    {1}{155.06377pt}\LT@entry 
    {1}{126.21101pt}\LT@entry 
    {1}{211.56927pt}\LT@entry 
    {1}{154.66377pt}}
\@writefile{lot}{\contentsline {table}{\numberline {30}{Dicion\IeC {\'a}rio de Dados - Documento Usuario}}{79}{table.6.30}}
\newlabel{dicionario-de-dados-usuario}{{\M@TitleReference {30}{Dicion\IeC {\'a}rio de Dados}}{79}{Dicionário de Dados - Documento Usuario}{table.6.30}{}}
\@writefile{lot}{\contentsline {table}{\numberline {31}{Dicion\IeC {\'a}rio de Dados - Documento Morador}}{79}{table.6.31}}
\newlabel{dicionario-de-dados-morador}{{\M@TitleReference {31}{Dicion\IeC {\'a}rio de Dados}}{79}{Dicionário de Dados - Documento Morador}{table.6.31}{}}
\gdef \LT@xxxii {\LT@entry 
    {1}{155.06377pt}\LT@entry 
    {1}{126.21101pt}\LT@entry 
    {1}{211.56927pt}\LT@entry 
    {1}{154.66377pt}}
\@writefile{lot}{\contentsline {table}{\numberline {32}{Dicion\IeC {\'a}rio de Dados - Documento Republica}}{80}{table.6.32}}
\newlabel{dicionario-de-dados-republica}{{\M@TitleReference {32}{Dicion\IeC {\'a}rio de Dados}}{80}{Dicionário de Dados - Documento Republica}{table.6.32}{}}
\gdef \LT@xxxiii {\LT@entry 
    {1}{155.06377pt}\LT@entry 
    {1}{126.21101pt}\LT@entry 
    {1}{211.56927pt}\LT@entry 
    {1}{154.66377pt}}
\gdef \LT@xxxiv {\LT@entry 
    {1}{155.06377pt}\LT@entry 
    {1}{126.21101pt}\LT@entry 
    {1}{211.56927pt}\LT@entry 
    {1}{154.66377pt}}
\@writefile{lot}{\contentsline {table}{\numberline {33}{Dicion\IeC {\'a}rio de Dados - Documento Endereco}}{81}{table.6.33}}
\newlabel{dicionario-de-dados-endereco}{{\M@TitleReference {33}{Dicion\IeC {\'a}rio de Dados}}{81}{Dicionário de Dados - Documento Endereco}{table.6.33}{}}
\@writefile{lot}{\contentsline {table}{\numberline {34}{Dicion\IeC {\'a}rio de Dados - Documento Restricoes}}{81}{table.6.34}}
\newlabel{dicionario-de-dados-restricoes}{{\M@TitleReference {34}{Dicion\IeC {\'a}rio de Dados}}{81}{Dicionário de Dados - Documento Restricoes}{table.6.34}{}}
\gdef \LT@xxxv {\LT@entry 
    {1}{155.06377pt}\LT@entry 
    {1}{126.21101pt}\LT@entry 
    {1}{211.56927pt}\LT@entry 
    {1}{154.66377pt}}
\@writefile{lot}{\contentsline {table}{\numberline {35}{Dicion\IeC {\'a}rio de Dados - Documento Imovel}}{82}{table.6.35}}
\newlabel{dicionario-de-dados-imovel}{{\M@TitleReference {35}{Dicion\IeC {\'a}rio de Dados}}{82}{Dicionário de Dados - Documento Imovel}{table.6.35}{}}
\gdef \LT@xxxvi {\LT@entry 
    {1}{155.06377pt}\LT@entry 
    {1}{126.21101pt}\LT@entry 
    {1}{211.56927pt}\LT@entry 
    {1}{154.66377pt}}
\@writefile{lot}{\contentsline {table}{\numberline {36}{Dicion\IeC {\'a}rio de Dados - Documento Despesa}}{83}{table.6.36}}
\newlabel{dicionario-de-dados-imovel}{{\M@TitleReference {36}{Dicion\IeC {\'a}rio de Dados}}{83}{Dicionário de Dados - Documento Despesa}{table.6.36}{}}
\gdef \LT@xxxvii {\LT@entry 
    {1}{155.06377pt}\LT@entry 
    {1}{126.21101pt}\LT@entry 
    {1}{211.56927pt}\LT@entry 
    {1}{154.66377pt}}
\@writefile{lot}{\contentsline {table}{\numberline {37}{Dicion\IeC {\'a}rio de Dados - Documento MinhaDespesa}}{84}{table.6.37}}
\newlabel{dicionario-de-dados-minhadespesa}{{\M@TitleReference {37}{Dicion\IeC {\'a}rio de Dados}}{84}{Dicionário de Dados - Documento MinhaDespesa}{table.6.37}{}}
\gdef \LT@xxxviii {\LT@entry 
    {1}{155.06377pt}\LT@entry 
    {1}{126.21101pt}\LT@entry 
    {1}{211.56927pt}\LT@entry 
    {1}{154.66377pt}}
\gdef \LT@xxxix {\LT@entry 
    {1}{155.06377pt}\LT@entry 
    {1}{126.21101pt}\LT@entry 
    {1}{211.56927pt}\LT@entry 
    {1}{154.66377pt}}
\@writefile{lot}{\contentsline {table}{\numberline {38}{Dicion\IeC {\'a}rio de Dados - Documento Deposito}}{85}{table.6.38}}
\newlabel{dicionario-de-dados-deposito}{{\M@TitleReference {38}{Dicion\IeC {\'a}rio de Dados}}{85}{Dicionário de Dados - Documento Deposito}{table.6.38}{}}
\@writefile{lot}{\contentsline {table}{\numberline {39}{Dicion\IeC {\'a}rio de Dados - Documento Saque}}{85}{table.6.39}}
\newlabel{dicionario-de-dados-saque}{{\M@TitleReference {39}{Dicion\IeC {\'a}rio de Dados}}{85}{Dicionário de Dados - Documento Saque}{table.6.39}{}}
\gdef \LT@xl {\LT@entry 
    {1}{155.06377pt}\LT@entry 
    {1}{126.21101pt}\LT@entry 
    {1}{211.56927pt}\LT@entry 
    {1}{154.66377pt}}
\@writefile{lot}{\contentsline {table}{\numberline {40}{Dicion\IeC {\'a}rio de Dados - Documento Solicitacao}}{86}{table.6.40}}
\newlabel{dicionario-de-dados-solicitacao}{{\M@TitleReference {40}{Dicion\IeC {\'a}rio de Dados}}{86}{Dicionário de Dados - Documento Solicitacao}{table.6.40}{}}
\BKM@entry{id=61,dest={636861707465722E37},srcline={724}}{50726F745C3336337469706F20646520696E7465726661636520646520616C746F206E5C33353576656C}
\BKM@entry{id=62,dest={73656374696F6E2E372E31},srcline={730}}{54656C6120496E696369616C204C6F67696E}
\@writefile{toc}{\setlength  {\cftchapterindent }{0em} \setlength  {\cftchapternumwidth }{\cftlastnumwidth }}
\@writefile{toc}{\contentsline {chapter}{\chapternumberline {7}\MakeTextUppercase  {Prot\IeC {\'o}tipo de interface de alto n\IeC {\'\i }vel}}{87}{chapter.7}}
\@writefile{toc}{\contentsline {section}{\numberline {7.1}Tela Inicial Login}{87}{section.7.1}}
\@writefile{lof}{\contentsline {figure}{\numberline {15}{\ignorespaces Prot\IeC {\'o}tipo - Tela Inicial Login}}{87}{figure.7.15}}
\newlabel{prototipo-01}{{\M@TitleReference {15}{Prot\IeC {\'o}tipo - Tela Inicial Login}}{87}{Protótipo - Tela Inicial Login}{figure.7.15}{}}
\BKM@entry{id=63,dest={73656374696F6E2E372E32},srcline={740}}{54656C6120526567697374726172205573755C33343172696F}
\@writefile{toc}{\contentsline {section}{\numberline {7.2}Tela Registrar Usu\IeC {\'a}rio}{88}{section.7.2}}
\@writefile{lof}{\contentsline {figure}{\numberline {16}{\ignorespaces Prot\IeC {\'o}tipo - Tela Registrar Usu\IeC {\'a}rio}}{88}{figure.7.16}}
\newlabel{prototipo-02}{{\M@TitleReference {16}{Prot\IeC {\'o}tipo - Tela Registrar Usu\IeC {\'a}rio}}{88}{Protótipo - Tela Registrar Usuário}{figure.7.16}{}}
\BKM@entry{id=64,dest={73656374696F6E2E372E33},srcline={750}}{54656C61205072696E636970616C202D204D656E75205265705C333732626C696361}
\@writefile{toc}{\contentsline {section}{\numberline {7.3}Tela Principal - Menu Rep\IeC {\'u}blica}{89}{section.7.3}}
\@writefile{lof}{\contentsline {figure}{\numberline {17}{\ignorespaces Prot\IeC {\'o}tipo - Tela Principal - Menu Rep\IeC {\'u}blica}}{89}{figure.7.17}}
\newlabel{prototipo-03}{{\M@TitleReference {17}{Prot\IeC {\'o}tipo - Tela Principal - Menu Rep\IeC {\'u}blica}}{89}{Protótipo - Tela Principal - Menu República}{figure.7.17}{}}
\BKM@entry{id=65,dest={73656374696F6E2E372E34},srcline={760}}{5065737175697361206465205265705C333732626C696361}
\@writefile{toc}{\contentsline {section}{\numberline {7.4}Pesquisa de Rep\IeC {\'u}blica}{90}{section.7.4}}
\@writefile{lof}{\contentsline {figure}{\numberline {18}{\ignorespaces Prot\IeC {\'o}tipo - Pesquisa de Rep\IeC {\'u}blica}}{90}{figure.7.18}}
\newlabel{prototipo-04}{{\M@TitleReference {18}{Prot\IeC {\'o}tipo - Pesquisa de Rep\IeC {\'u}blica}}{90}{Protótipo - Pesquisa de República}{figure.7.18}{}}
\BKM@entry{id=66,dest={73656374696F6E2E372E35},srcline={770}}{56697375616C697A6172205265705C333732626C696361}
\@writefile{toc}{\contentsline {section}{\numberline {7.5}Visualizar Rep\IeC {\'u}blica}{91}{section.7.5}}
\@writefile{lof}{\contentsline {figure}{\numberline {19}{\ignorespaces Prot\IeC {\'o}tipo - Visualizar Rep\IeC {\'u}blica}}{91}{figure.7.19}}
\newlabel{prototipo-05}{{\M@TitleReference {19}{Prot\IeC {\'o}tipo - Visualizar Rep\IeC {\'u}blica}}{91}{Protótipo - Visualizar República}{figure.7.19}{}}
\BKM@entry{id=67,dest={73656374696F6E2E372E36},srcline={780}}{436164617374726F206465205265705C333732626C696361202D20536F6272652061205265705C333732626C696361}
\@writefile{toc}{\contentsline {section}{\numberline {7.6}Cadastro de Rep\IeC {\'u}blica - Sobre a Rep\IeC {\'u}blica}{92}{section.7.6}}
\@writefile{lof}{\contentsline {figure}{\numberline {20}{\ignorespaces Prot\IeC {\'o}tipo: Cadastro de Rep\IeC {\'u}blica - Sobre a Rep\IeC {\'u}blica}}{92}{figure.7.20}}
\newlabel{prototipo-06}{{\M@TitleReference {20}{Prot\IeC {\'o}tipo: Cadastro de Rep\IeC {\'u}blica - Sobre a Rep\IeC {\'u}blica}}{92}{Protótipo: Cadastro de República - Sobre a República}{figure.7.20}{}}
\BKM@entry{id=68,dest={73656374696F6E2E372E37},srcline={790}}{436164617374726F206465205265705C333732626C696361202D20536F627265206F20496D5C33363376656C}
\@writefile{toc}{\contentsline {section}{\numberline {7.7}Cadastro de Rep\IeC {\'u}blica - Sobre o Im\IeC {\'o}vel}{93}{section.7.7}}
\@writefile{lof}{\contentsline {figure}{\numberline {21}{\ignorespaces Prot\IeC {\'o}tipo - Cadastro de Rep\IeC {\'u}blica - Sobre o Im\IeC {\'o}vel}}{93}{figure.7.21}}
\newlabel{prototipo-07}{{\M@TitleReference {21}{Prot\IeC {\'o}tipo - Cadastro de Rep\IeC {\'u}blica - Sobre o Im\IeC {\'o}vel}}{93}{Protótipo - Cadastro de República - Sobre o Imóvel}{figure.7.21}{}}
\BKM@entry{id=69,dest={73656374696F6E2E372E38},srcline={800}}{436164617374726F206465205265705C333732626C696361202D2051756172746F732065205265737472695C3334375C3336356573}
\@writefile{toc}{\contentsline {section}{\numberline {7.8}Cadastro de Rep\IeC {\'u}blica - Quartos e Restri\IeC {\c c}\IeC {\~o}es}{94}{section.7.8}}
\@writefile{lof}{\contentsline {figure}{\numberline {22}{\ignorespaces Prot\IeC {\'o}tipo - Cadastro de Rep\IeC {\'u}blica - Quartos e Restri\IeC {\c c}\IeC {\~o}es}}{94}{figure.7.22}}
\newlabel{prototipo-08}{{\M@TitleReference {22}{Prot\IeC {\'o}tipo - Cadastro de Rep\IeC {\'u}blica - Quartos e Restri\IeC {\c c}\IeC {\~o}es}}{94}{Protótipo - Cadastro de República - Quartos e Restrições}{figure.7.22}{}}
\BKM@entry{id=70,dest={73656374696F6E2E372E39},srcline={810}}{436164617374726F206465205265705C333732626C696361202D20456E646572655C3334376F}
\@writefile{toc}{\contentsline {section}{\numberline {7.9}Cadastro de Rep\IeC {\'u}blica - Endere\IeC {\c c}o}{95}{section.7.9}}
\@writefile{lof}{\contentsline {figure}{\numberline {23}{\ignorespaces Prot\IeC {\'o}tipo - Cadastro de Rep\IeC {\'u}blica - Endere\IeC {\c c}o}}{95}{figure.7.23}}
\newlabel{prototipo-09}{{\M@TitleReference {23}{Prot\IeC {\'o}tipo - Cadastro de Rep\IeC {\'u}blica - Endere\IeC {\c c}o}}{95}{Protótipo - Cadastro de República - Endereço}{figure.7.23}{}}
\BKM@entry{id=71,dest={73656374696F6E2E372E3130},srcline={820}}{54656C61205072696E636970616C202D2046696E616E636569726F}
\@writefile{toc}{\contentsline {section}{\numberline {7.10}Tela Principal - Financeiro}{96}{section.7.10}}
\@writefile{lof}{\contentsline {figure}{\numberline {24}{\ignorespaces Prot\IeC {\'o}tipo: Tela Principal - Financeiro}}{96}{figure.7.24}}
\newlabel{prototipo-10}{{\M@TitleReference {24}{Prot\IeC {\'o}tipo: Tela Principal - Financeiro}}{96}{Protótipo: Tela Principal - Financeiro}{figure.7.24}{}}
\BKM@entry{id=72,dest={73656374696F6E2E372E3131},srcline={830}}{436F6E74726F6C65206465204465737065736173202D204465737065736173}
\@writefile{toc}{\contentsline {section}{\numberline {7.11}Controle de Despesas - Despesas}{97}{section.7.11}}
\@writefile{lof}{\contentsline {figure}{\numberline {25}{\ignorespaces Prot\IeC {\'o}tipo - Controle de Despesas - Despesas}}{97}{figure.7.25}}
\newlabel{prototipo-11}{{\M@TitleReference {25}{Prot\IeC {\'o}tipo - Controle de Despesas - Despesas}}{97}{Protótipo - Controle de Despesas - Despesas}{figure.7.25}{}}
\BKM@entry{id=73,dest={73656374696F6E2E372E3132},srcline={840}}{436F6E74726F6C65206465204465737065736173202D20436164617374726F2064652044657370657361}
\@writefile{toc}{\contentsline {section}{\numberline {7.12}Controle de Despesas - Cadastro de Despesa}{98}{section.7.12}}
\@writefile{lof}{\contentsline {figure}{\numberline {26}{\ignorespaces Prot\IeC {\'o}tipo - Controle de Despesas - Cadastro de Despesa}}{98}{figure.7.26}}
\newlabel{prototipo-12}{{\M@TitleReference {26}{Prot\IeC {\'o}tipo - Controle de Despesas - Cadastro de Despesa}}{98}{Protótipo - Controle de Despesas - Cadastro de Despesa}{figure.7.26}{}}
\BKM@entry{id=74,dest={73656374696F6E2E372E3133},srcline={850}}{436F6E74726F6C65206465204465737065736173202D204D696E686173204465737065736173}
\@writefile{toc}{\contentsline {section}{\numberline {7.13}Controle de Despesas - Minhas Despesas}{99}{section.7.13}}
\@writefile{lof}{\contentsline {figure}{\numberline {27}{\ignorespaces Prot\IeC {\'o}tipo - Controle de Despesas - Minhas Despesas}}{99}{figure.7.27}}
\newlabel{prototipo-13}{{\M@TitleReference {27}{Prot\IeC {\'o}tipo - Controle de Despesas - Minhas Despesas}}{99}{Protótipo - Controle de Despesas - Minhas Despesas}{figure.7.27}{}}
\BKM@entry{id=75,dest={73656374696F6E2E372E3134},srcline={860}}{436F6E74726F6C65206465204465737065736173202D2052656C61745C33363372696F}
\@writefile{toc}{\contentsline {section}{\numberline {7.14}Controle de Despesas - Relat\IeC {\'o}rio}{100}{section.7.14}}
\@writefile{lof}{\contentsline {figure}{\numberline {28}{\ignorespaces Prot\IeC {\'o}tipo - Controle de Despesas - Relat\IeC {\'o}rio}}{100}{figure.7.28}}
\newlabel{prototipo-14}{{\M@TitleReference {28}{Prot\IeC {\'o}tipo - Controle de Despesas - Relat\IeC {\'o}rio}}{100}{Protótipo - Controle de Despesas - Relatório}{figure.7.28}{}}
\BKM@entry{id=76,dest={73656374696F6E2E372E3135},srcline={870}}{436F6E74726F6C65206465204361697861202D20456E747261646173}
\@writefile{toc}{\contentsline {section}{\numberline {7.15}Controle de Caixa - Entradas}{101}{section.7.15}}
\@writefile{lof}{\contentsline {figure}{\numberline {29}{\ignorespaces Prot\IeC {\'o}tipo - Controle de Caixa - Entradas}}{101}{figure.7.29}}
\newlabel{prototipo-15}{{\M@TitleReference {29}{Prot\IeC {\'o}tipo - Controle de Caixa - Entradas}}{101}{Protótipo - Controle de Caixa - Entradas}{figure.7.29}{}}
\BKM@entry{id=77,dest={73656374696F6E2E372E3136},srcline={880}}{436F6E74726F6C65206465204361697861202D204465705C3336337369746F}
\@writefile{toc}{\contentsline {section}{\numberline {7.16}Controle de Caixa - Dep\IeC {\'o}sito}{102}{section.7.16}}
\@writefile{lof}{\contentsline {figure}{\numberline {30}{\ignorespaces Prot\IeC {\'o}tipo - Controle de Caixa - Dep\IeC {\'o}sito}}{102}{figure.7.30}}
\newlabel{prototipo-16}{{\M@TitleReference {30}{Prot\IeC {\'o}tipo - Controle de Caixa - Dep\IeC {\'o}sito}}{102}{Protótipo - Controle de Caixa - Depósito}{figure.7.30}{}}
\BKM@entry{id=78,dest={73656374696F6E2E372E3137},srcline={890}}{436F6E74726F6C65206465204361697861202D2053615C333535646173}
\@writefile{toc}{\contentsline {section}{\numberline {7.17}Controle de Caixa - Sa\IeC {\'\i }das}{103}{section.7.17}}
\@writefile{lof}{\contentsline {figure}{\numberline {31}{\ignorespaces Prot\IeC {\'o}tipo - Controle de Caixa - Sa\IeC {\'\i }das}}{103}{figure.7.31}}
\newlabel{prototipo-17}{{\M@TitleReference {31}{Prot\IeC {\'o}tipo - Controle de Caixa - Sa\IeC {\'\i }das}}{103}{Protótipo - Controle de Caixa - Saídas}{figure.7.31}{}}
\BKM@entry{id=79,dest={73656374696F6E2E372E3138},srcline={900}}{436F6E74726F6C65206465204361697861202D205361717565}
\@writefile{toc}{\contentsline {section}{\numberline {7.18}Controle de Caixa - Saque}{104}{section.7.18}}
\@writefile{lof}{\contentsline {figure}{\numberline {32}{\ignorespaces Prot\IeC {\'o}tipo - Controle de Caixa - Saque}}{104}{figure.7.32}}
\newlabel{prototipo-18}{{\M@TitleReference {32}{Prot\IeC {\'o}tipo - Controle de Caixa - Saque}}{104}{Protótipo - Controle de Caixa - Saque}{figure.7.32}{}}
\BKM@entry{id=80,dest={73656374696F6E2E372E3139},srcline={910}}{436F6E74726F6C65206465204361697861202D2052656C61745C33363372696F}
\@writefile{toc}{\contentsline {section}{\numberline {7.19}Controle de Caixa - Relat\IeC {\'o}rio}{105}{section.7.19}}
\@writefile{lof}{\contentsline {figure}{\numberline {33}{\ignorespaces Prot\IeC {\'o}tipo - Controle de Caixa - Relat\IeC {\'o}rio}}{105}{figure.7.33}}
\newlabel{prototipo-19}{{\M@TitleReference {33}{Prot\IeC {\'o}tipo - Controle de Caixa - Relat\IeC {\'o}rio}}{105}{Protótipo - Controle de Caixa - Relatório}{figure.7.33}{}}
\BKM@entry{id=81,dest={636861707465722E38},srcline={922}}{496D706C656D656E74615C3334375C3334336F}
\@writefile{toc}{\setlength  {\cftchapterindent }{0em} \setlength  {\cftchapternumwidth }{\cftlastnumwidth }}
\@writefile{toc}{\contentsline {chapter}{\chapternumberline {8}\MakeTextUppercase  {Implementa\IeC {\c c}\IeC {\~a}o}}{106}{chapter.8}}
\BKM@entry{id=82,dest={636861707465722E39},srcline={926}}{54657374657320652046616C68617320436F6E68656369646173}
\BKM@entry{id=83,dest={73656374696F6E2E392E31},srcline={930}}{506C616E6F20646520546573746573}
\BKM@entry{id=84,dest={73656374696F6E2E392E32},srcline={933}}{45786563755C3334375C3334336F20646F20506C616E6F20646520546573746573}
\@writefile{toc}{\setlength  {\cftchapterindent }{0em} \setlength  {\cftchapternumwidth }{\cftlastnumwidth }}
\@writefile{toc}{\contentsline {chapter}{\chapternumberline {9}\MakeTextUppercase  {Testes e Falhas Conhecidas}}{107}{chapter.9}}
\@writefile{toc}{\contentsline {section}{\numberline {9.1}Plano de Testes}{107}{section.9.1}}
\@writefile{toc}{\contentsline {section}{\numberline {9.2}Execu\IeC {\c c}\IeC {\~a}o do Plano de Testes}{107}{section.9.2}}
\@input{PlanoTeste/teste1.aux}
\@input{PlanoTeste/teste2.aux}
\@input{PlanoTeste/teste3.aux}
\@input{PlanoTeste/teste4.aux}
\@input{PlanoTeste/teste5.aux}
\@input{PlanoTeste/teste6.aux}
\BKM@entry{id=85,dest={73656374696F6E2E392E33},srcline={942}}{46616C68617320436F6E68656369646173}
\BKM@entry{id=86,dest={73756273656374696F6E2E392E332E31},srcline={951}}{446574616C68616D656E746F}
\@writefile{toc}{\contentsline {section}{\numberline {9.3}Falhas Conhecidas}{114}{section.9.3}}
\@writefile{toc}{\contentsline {subsection}{\numberline {9.3.1}Detalhamento}{114}{subsection.9.3.1}}
\BKM@entry{id=87,dest={73756273656374696F6E2E392E332E32},srcline={961}}{5072617A6F7320707265766973746F73207061726120636F7272655C3334375C3336356573206520736F6C755C3334375C33363565732061646F7461646173}
\@writefile{toc}{\contentsline {subsection}{\numberline {9.3.2}Prazos previstos para corre\IeC {\c c}\IeC {\~o}es e solu\IeC {\c c}\IeC {\~o}es adotadas}{115}{subsection.9.3.2}}
\BKM@entry{id=88,dest={636861707465722E3130},srcline={969}}{496D706C616E74615C3334375C3334336F}
\BKM@entry{id=89,dest={73656374696F6E2E31302E31},srcline={983}}{4D616E75616C20646120696D706C616E74615C3334375C3334336F}
\@writefile{toc}{\setlength  {\cftchapterindent }{0em} \setlength  {\cftchapternumwidth }{\cftlastnumwidth }}
\@writefile{toc}{\contentsline {chapter}{\chapternumberline {10}\MakeTextUppercase  {Implanta\IeC {\c c}\IeC {\~a}o}}{116}{chapter.10}}
\@writefile{lof}{\contentsline {figure}{\numberline {34}{\ignorespaces Diagrama de Implanta\IeC {\c c}\IeC {\~a}o}}{116}{figure.10.34}}
\newlabel{diagrama-implantacao}{{\M@TitleReference {34}{Diagrama de Implanta\IeC {\c c}\IeC {\~a}o}}{116}{Diagrama de Implantação}{figure.10.34}{}}
\@writefile{toc}{\contentsline {section}{\numberline {10.1}Manual da implanta\IeC {\c c}\IeC {\~a}o}{116}{section.10.1}}
\BKM@entry{id=90,dest={636861707465722E3131},srcline={992}}{4D616E75616C20646F205573755C33343172696F}
\BKM@entry{id=91,dest={73656374696F6E2E31312E31},srcline={995}}{417574656E746963615C3334375C3334336F}
\@writefile{toc}{\setlength  {\cftchapterindent }{0em} \setlength  {\cftchapternumwidth }{\cftlastnumwidth }}
\@writefile{toc}{\contentsline {chapter}{\chapternumberline {11}\MakeTextUppercase  {Manual do Usu\IeC {\'a}rio}}{117}{chapter.11}}
\@writefile{toc}{\contentsline {section}{\numberline {11.1}Autentica\IeC {\c c}\IeC {\~a}o}{117}{section.11.1}}
\@writefile{lof}{\contentsline {figure}{\numberline {35}{\ignorespaces Manual - Autentica\IeC {\c c}\IeC {\~a}o}}{117}{figure.11.35}}
\newlabel{autenticacao-01}{{\M@TitleReference {35}{Manual - Autentica\IeC {\c c}\IeC {\~a}o}}{117}{Manual - Autenticação}{figure.11.35}{}}
\@writefile{lof}{\contentsline {figure}{\numberline {36}{\ignorespaces Manual - Autentica\IeC {\c c}\IeC {\~a}o}}{118}{figure.11.36}}
\newlabel{autenticacao-02}{{\M@TitleReference {36}{Manual - Autentica\IeC {\c c}\IeC {\~a}o}}{118}{Manual - Autenticação}{figure.11.36}{}}
\@writefile{lof}{\contentsline {figure}{\numberline {37}{\ignorespaces Manual - Autentica\IeC {\c c}\IeC {\~a}o}}{119}{figure.11.37}}
\newlabel{autenticacao-03}{{\M@TitleReference {37}{Manual - Autentica\IeC {\c c}\IeC {\~a}o}}{119}{Manual - Autenticação}{figure.11.37}{}}
\@writefile{lof}{\contentsline {figure}{\numberline {38}{\ignorespaces Manual - Autentica\IeC {\c c}\IeC {\~a}o}}{120}{figure.11.38}}
\newlabel{autenticacao-04}{{\M@TitleReference {38}{Manual - Autentica\IeC {\c c}\IeC {\~a}o}}{120}{Manual - Autenticação}{figure.11.38}{}}
\@writefile{lof}{\contentsline {figure}{\numberline {39}{\ignorespaces Manual - Autentica\IeC {\c c}\IeC {\~a}o}}{121}{figure.11.39}}
\newlabel{autenticacao-05}{{\M@TitleReference {39}{Manual - Autentica\IeC {\c c}\IeC {\~a}o}}{121}{Manual - Autenticação}{figure.11.39}{}}
\@writefile{lof}{\contentsline {figure}{\numberline {40}{\ignorespaces Manual - Autentica\IeC {\c c}\IeC {\~a}o}}{122}{figure.11.40}}
\newlabel{autenticacao-06}{{\M@TitleReference {40}{Manual - Autentica\IeC {\c c}\IeC {\~a}o}}{122}{Manual - Autenticação}{figure.11.40}{}}
\@writefile{lof}{\contentsline {figure}{\numberline {41}{\ignorespaces Manual - Autentica\IeC {\c c}\IeC {\~a}o}}{123}{figure.11.41}}
\newlabel{autenticacao-07}{{\M@TitleReference {41}{Manual - Autentica\IeC {\c c}\IeC {\~a}o}}{123}{Manual - Autenticação}{figure.11.41}{}}
\@writefile{lof}{\contentsline {figure}{\numberline {42}{\ignorespaces Manual - Autentica\IeC {\c c}\IeC {\~a}o}}{124}{figure.11.42}}
\newlabel{autenticacao-08}{{\M@TitleReference {42}{Manual - Autentica\IeC {\c c}\IeC {\~a}o}}{124}{Manual - Autenticação}{figure.11.42}{}}
\BKM@entry{id=92,dest={73656374696F6E2E31312E32},srcline={1082}}{436164617374726172207265705C333732626C696361}
\@writefile{toc}{\contentsline {section}{\numberline {11.2}Cadastrar rep\IeC {\'u}blica}{125}{section.11.2}}
\@writefile{lof}{\contentsline {figure}{\numberline {43}{\ignorespaces Manual - Cadastrar Rep\IeC {\'u}blica}}{125}{figure.11.43}}
\newlabel{republica-01}{{\M@TitleReference {43}{Manual - Cadastrar Rep\IeC {\'u}blica}}{125}{Manual - Cadastrar República}{figure.11.43}{}}
\@writefile{lof}{\contentsline {figure}{\numberline {44}{\ignorespaces Manual - Cadastrar Rep\IeC {\'u}blica}}{126}{figure.11.44}}
\newlabel{republica-02}{{\M@TitleReference {44}{Manual - Cadastrar Rep\IeC {\'u}blica}}{126}{Manual - Cadastrar República}{figure.11.44}{}}
\@writefile{lof}{\contentsline {figure}{\numberline {45}{\ignorespaces Manual - Cadastrar Rep\IeC {\'u}blica}}{127}{figure.11.45}}
\newlabel{republica-03}{{\M@TitleReference {45}{Manual - Cadastrar Rep\IeC {\'u}blica}}{127}{Manual - Cadastrar República}{figure.11.45}{}}
\@writefile{lof}{\contentsline {figure}{\numberline {46}{\ignorespaces Manual - Cadastrar Rep\IeC {\'u}blica}}{128}{figure.11.46}}
\newlabel{republica-04}{{\M@TitleReference {46}{Manual - Cadastrar Rep\IeC {\'u}blica}}{128}{Manual - Cadastrar República}{figure.11.46}{}}
\@writefile{lof}{\contentsline {figure}{\numberline {47}{\ignorespaces Manual - Cadastrar Rep\IeC {\'u}blica}}{129}{figure.11.47}}
\newlabel{republica-05}{{\M@TitleReference {47}{Manual - Cadastrar Rep\IeC {\'u}blica}}{129}{Manual - Cadastrar República}{figure.11.47}{}}
\@writefile{lof}{\contentsline {figure}{\numberline {48}{\ignorespaces Manual - Cadastrar Rep\IeC {\'u}blica}}{130}{figure.11.48}}
\newlabel{republica-06}{{\M@TitleReference {48}{Manual - Cadastrar Rep\IeC {\'u}blica}}{130}{Manual - Cadastrar República}{figure.11.48}{}}
\@writefile{lof}{\contentsline {figure}{\numberline {49}{\ignorespaces Manual - Cadastrar Rep\IeC {\'u}blica}}{131}{figure.11.49}}
\newlabel{republica-07}{{\M@TitleReference {49}{Manual - Cadastrar Rep\IeC {\'u}blica}}{131}{Manual - Cadastrar República}{figure.11.49}{}}
\@writefile{lof}{\contentsline {figure}{\numberline {50}{\ignorespaces Manual - Cadastrar Rep\IeC {\'u}blica}}{132}{figure.11.50}}
\newlabel{republica-08}{{\M@TitleReference {50}{Manual - Cadastrar Rep\IeC {\'u}blica}}{132}{Manual - Cadastrar República}{figure.11.50}{}}
\BKM@entry{id=93,dest={73656374696F6E2E31312E33},srcline={1169}}{506573717569736172207265705C333732626C696361206520736F6C6963697461722076616761}
\@writefile{toc}{\contentsline {section}{\numberline {11.3}Pesquisar rep\IeC {\'u}blica e solicitar vaga}{133}{section.11.3}}
\@writefile{lof}{\contentsline {figure}{\numberline {51}{\ignorespaces Manual - Pesquisar Rep\IeC {\'u}blica}}{133}{figure.11.51}}
\newlabel{pesquisa_vaga-01}{{\M@TitleReference {51}{Manual - Pesquisar Rep\IeC {\'u}blica}}{133}{Manual - Pesquisar República}{figure.11.51}{}}
\@writefile{lof}{\contentsline {figure}{\numberline {52}{\ignorespaces Manual - Pesquisar Rep\IeC {\'u}blica}}{134}{figure.11.52}}
\newlabel{pesquisa_vaga-02}{{\M@TitleReference {52}{Manual - Pesquisar Rep\IeC {\'u}blica}}{134}{Manual - Pesquisar República}{figure.11.52}{}}
\@writefile{lof}{\contentsline {figure}{\numberline {53}{\ignorespaces Manual - Pesquisar Rep\IeC {\'u}blica}}{135}{figure.11.53}}
\newlabel{pesquisa_vaga-03}{{\M@TitleReference {53}{Manual - Pesquisar Rep\IeC {\'u}blica}}{135}{Manual - Pesquisar República}{figure.11.53}{}}
\@writefile{lof}{\contentsline {figure}{\numberline {54}{\ignorespaces Manual - Pesquisar Rep\IeC {\'u}blica}}{136}{figure.11.54}}
\newlabel{pesquisa_vaga-04}{{\M@TitleReference {54}{Manual - Pesquisar Rep\IeC {\'u}blica}}{136}{Manual - Pesquisar República}{figure.11.54}{}}
\@writefile{lof}{\contentsline {figure}{\numberline {55}{\ignorespaces Manual - Pesquisar Rep\IeC {\'u}blica}}{137}{figure.11.55}}
\newlabel{pesquisa_vaga-05}{{\M@TitleReference {55}{Manual - Pesquisar Rep\IeC {\'u}blica}}{137}{Manual - Pesquisar República}{figure.11.55}{}}
\@writefile{lof}{\contentsline {figure}{\numberline {56}{\ignorespaces Manual - Pesquisar Rep\IeC {\'u}blica}}{138}{figure.11.56}}
\newlabel{pesquisa_vaga-06}{{\M@TitleReference {56}{Manual - Pesquisar Rep\IeC {\'u}blica}}{138}{Manual - Pesquisar República}{figure.11.56}{}}
\BKM@entry{id=94,dest={73656374696F6E2E31312E34},srcline={1240}}{46696E616E636569726F202D204465737065736173}
\@writefile{toc}{\contentsline {section}{\numberline {11.4}Financeiro - Despesas}{139}{section.11.4}}
\@writefile{lof}{\contentsline {figure}{\numberline {57}{\ignorespaces Manual - Despesas}}{139}{figure.11.57}}
\newlabel{despesa-01}{{\M@TitleReference {57}{Manual - Despesas}}{139}{Manual - Despesas}{figure.11.57}{}}
\@writefile{lof}{\contentsline {figure}{\numberline {58}{\ignorespaces Manual - Despesas}}{140}{figure.11.58}}
\newlabel{despesa-02}{{\M@TitleReference {58}{Manual - Despesas}}{140}{Manual - Despesas}{figure.11.58}{}}
\@writefile{lof}{\contentsline {figure}{\numberline {59}{\ignorespaces Manual - Despesas}}{141}{figure.11.59}}
\newlabel{despesa-03}{{\M@TitleReference {59}{Manual - Despesas}}{141}{Manual - Despesas}{figure.11.59}{}}
\@writefile{lof}{\contentsline {figure}{\numberline {60}{\ignorespaces Manual - Despesas}}{142}{figure.11.60}}
\newlabel{despesa-04}{{\M@TitleReference {60}{Manual - Despesas}}{142}{Manual - Despesas}{figure.11.60}{}}
\@writefile{lof}{\contentsline {figure}{\numberline {61}{\ignorespaces Manual - Despesas}}{143}{figure.11.61}}
\newlabel{despesa-05}{{\M@TitleReference {61}{Manual - Despesas}}{143}{Manual - Despesas}{figure.11.61}{}}
\@writefile{lof}{\contentsline {figure}{\numberline {62}{\ignorespaces Manual - Despesas}}{144}{figure.11.62}}
\newlabel{despesa-06}{{\M@TitleReference {62}{Manual - Despesas}}{144}{Manual - Despesas}{figure.11.62}{}}
\@writefile{lof}{\contentsline {figure}{\numberline {63}{\ignorespaces Manual - Despesas}}{145}{figure.11.63}}
\newlabel{despesa-07}{{\M@TitleReference {63}{Manual - Despesas}}{145}{Manual - Despesas}{figure.11.63}{}}
\@writefile{lof}{\contentsline {figure}{\numberline {64}{\ignorespaces Manual - Despesa}}{146}{figure.11.64}}
\newlabel{despesa-08}{{\M@TitleReference {64}{Manual - Despesa}}{146}{Manual - Despesa}{figure.11.64}{}}
\@writefile{lof}{\contentsline {figure}{\numberline {65}{\ignorespaces Manual - Despesas}}{147}{figure.11.65}}
\newlabel{despesa-09}{{\M@TitleReference {65}{Manual - Despesas}}{147}{Manual - Despesas}{figure.11.65}{}}
\@writefile{lof}{\contentsline {figure}{\numberline {66}{\ignorespaces Manual - Despesas}}{148}{figure.11.66}}
\newlabel{despesa-10}{{\M@TitleReference {66}{Manual - Despesas}}{148}{Manual - Despesas}{figure.11.66}{}}
\@writefile{lof}{\contentsline {figure}{\numberline {67}{\ignorespaces Manual - Despesas}}{149}{figure.11.67}}
\newlabel{despesa-11}{{\M@TitleReference {67}{Manual - Despesas}}{149}{Manual - Despesas}{figure.11.67}{}}
\@writefile{lof}{\contentsline {figure}{\numberline {68}{\ignorespaces Manual - Despesas}}{150}{figure.11.68}}
\newlabel{despesa-12}{{\M@TitleReference {68}{Manual - Despesas}}{150}{Manual - Despesas}{figure.11.68}{}}
\@writefile{lof}{\contentsline {figure}{\numberline {69}{\ignorespaces Manual - Despesas}}{151}{figure.11.69}}
\newlabel{despesa-13}{{\M@TitleReference {69}{Manual - Despesas}}{151}{Manual - Despesas}{figure.11.69}{}}
\BKM@entry{id=95,dest={73656374696F6E2E31312E35},srcline={1372}}{46696E616E636569726F202D204361697861}
\@writefile{toc}{\contentsline {section}{\numberline {11.5}Financeiro - Caixa}{152}{section.11.5}}
\@writefile{lof}{\contentsline {figure}{\numberline {70}{\ignorespaces Manual - Caixa}}{152}{figure.11.70}}
\newlabel{caixa-01}{{\M@TitleReference {70}{Manual - Caixa}}{152}{Manual - Caixa}{figure.11.70}{}}
\@writefile{lof}{\contentsline {figure}{\numberline {71}{\ignorespaces Manual - Caixa}}{153}{figure.11.71}}
\newlabel{caixa-02}{{\M@TitleReference {71}{Manual - Caixa}}{153}{Manual - Caixa}{figure.11.71}{}}
\@writefile{lof}{\contentsline {figure}{\numberline {72}{\ignorespaces Manual - Caixa}}{154}{figure.11.72}}
\newlabel{caixa-03}{{\M@TitleReference {72}{Manual - Caixa}}{154}{Manual - Caixa}{figure.11.72}{}}
\@writefile{lof}{\contentsline {figure}{\numberline {73}{\ignorespaces Manual - Caixa}}{155}{figure.11.73}}
\newlabel{caixa-04}{{\M@TitleReference {73}{Manual - Caixa}}{155}{Manual - Caixa}{figure.11.73}{}}
\@writefile{lof}{\contentsline {figure}{\numberline {74}{\ignorespaces Manual - Caixa}}{156}{figure.11.74}}
\newlabel{caixa-05}{{\M@TitleReference {74}{Manual - Caixa}}{156}{Manual - Caixa}{figure.11.74}{}}
\@writefile{lof}{\contentsline {figure}{\numberline {75}{\ignorespaces Manual - Caixa}}{157}{figure.11.75}}
\newlabel{caixa-06}{{\M@TitleReference {75}{Manual - Caixa}}{157}{Manual - Caixa}{figure.11.75}{}}
\@writefile{lof}{\contentsline {figure}{\numberline {76}{\ignorespaces Manual - Caixa}}{158}{figure.11.76}}
\newlabel{caixa-07}{{\M@TitleReference {76}{Manual - Caixa}}{158}{Manual - Caixa}{figure.11.76}{}}
\@writefile{lof}{\contentsline {figure}{\numberline {77}{\ignorespaces Manual - Caixa}}{159}{figure.11.77}}
\newlabel{caixa-08}{{\M@TitleReference {77}{Manual - Caixa}}{159}{Manual - Caixa}{figure.11.77}{}}
\BKM@entry{id=96,dest={636861707465722E3132},srcline={1454}}{436F6E636C75735C3336356573206520436F6E7369646572615C3334375C33363565732046696E616973}
\@writefile{toc}{\setlength  {\cftchapterindent }{0em} \setlength  {\cftchapternumwidth }{\cftlastnumwidth }}
\@writefile{toc}{\contentsline {chapter}{\chapternumberline {12}\MakeTextUppercase  {Conclus\IeC {\~o}es e Considera\IeC {\c c}\IeC {\~o}es Finais}}{160}{chapter.12}}
\BKM@entry{id=97,dest={73656374696F6E2A2E38},srcline={1458}}{52656665725C3335326E63696173}
\bibcite{manualCloudFireStore}{1}
\bibcite{manualMaps}{2}
\bibcite{manualAnychart}{3}
\bibcite{develloper}{4}
\bibcite{simplified}{5}
\bibcite{alura}{6}
\@writefile{toc}{\setlength  {\cftchapterindent }{\cftlastnumwidth } \setlength  {\cftchapternumwidth }{2em}}
\@writefile{toc}{\contentsline {chapter}{Refer\^encias}{161}{section*.8}}
\@writefile{toc}{\setlength  {\cftchapterindent }{\cftlastnumwidth } \setlength  {\cftchapternumwidth }{2em}}
\newlabel{LastPage}{{}{162}{}{page.162}{}}
\xdef\lastpage@lastpage{162}
\xdef\lastpage@lastpageHy{162}
\bibstyle{abntex2-alf}
\memsetcounter{lastsheet}{163}
\memsetcounter{lastpage}{162}
